<svg width="19" height="20" viewBox="0 0 19 20" fill="none" xmlns="http://www.w3.org/2000/svg">
<path d="M0.133789 8.65039C0.133789 9.70801 0.331706 10.7007 0.727539 11.6284C1.12337 12.5562 1.67383 13.3726 2.37891 14.0776C3.08398 14.7827 3.8973 15.3332 4.81885 15.729C5.74658 16.1248 6.73926 16.3228 7.79688 16.3228C8.54525 16.3228 9.2596 16.2176 9.93994 16.0073C10.6265 15.7909 11.2604 15.4971 11.8418 15.126L15.8774 19.1616C16.0321 19.3162 16.2083 19.4307 16.4062 19.5049C16.6042 19.5791 16.8083 19.6162 17.0186 19.6162C17.3278 19.6162 17.5999 19.5451 17.835 19.4028C18.07 19.2668 18.2555 19.0781 18.3916 18.8369C18.5277 18.5957 18.5957 18.3267 18.5957 18.0298C18.5957 17.8133 18.5555 17.6092 18.4751 17.4175C18.4009 17.2319 18.2896 17.0618 18.1411 16.9072L14.1426 12.8901C14.557 12.2902 14.8786 11.6315 15.1074 10.9141C15.3424 10.1966 15.46 9.44206 15.46 8.65039C15.46 7.59896 15.262 6.60938 14.8662 5.68164C14.4704 4.75391 13.9199 3.94059 13.2148 3.2417C12.5098 2.53662 11.6934 1.98617 10.7656 1.59033C9.84408 1.1945 8.85449 0.996582 7.79688 0.996582C6.73926 0.996582 5.74658 1.1945 4.81885 1.59033C3.8973 1.98617 3.08398 2.53662 2.37891 3.2417C1.67383 3.94059 1.12337 4.75391 0.727539 5.68164C0.331706 6.60938 0.133789 7.59896 0.133789 8.65039ZM2.38818 8.65039C2.38818 7.9082 2.52734 7.2124 2.80566 6.56299C3.09017 5.90739 3.47982 5.33219 3.97461 4.8374C4.4694 4.33643 5.0415 3.94678 5.69092 3.66846C6.34652 3.39014 7.0485 3.25098 7.79688 3.25098C8.54525 3.25098 9.24414 3.39014 9.89355 3.66846C10.5492 3.94678 11.1243 4.33643 11.6191 4.8374C12.1139 5.33219 12.5005 5.90739 12.7788 6.56299C13.0633 7.2124 13.2056 7.9082 13.2056 8.65039C13.2056 9.39876 13.0633 10.1007 12.7788 10.7563C12.5005 11.4058 12.1139 11.9779 11.6191 12.4727C11.1243 12.9674 10.5492 13.3571 9.89355 13.6416C9.24414 13.9199 8.54525 14.0591 7.79688 14.0591C7.0485 14.0591 6.34652 13.9199 5.69092 13.6416C5.0415 13.3571 4.4694 12.9674 3.97461 12.4727C3.47982 11.9779 3.09017 11.4058 2.80566 10.7563C2.52734 10.1007 2.38818 9.39876 2.38818 8.65039Z" fill="#8364BF"/>
</svg>
